x10 = (0,1);
x11 = (1,1);
x12 = (2,1);
x13 = (3,1);
x14 = (4,1);
x0 = {(0,1),(3,1),(4,1),(1,1),(2,1)};
x15 = (0,1);
x16 = (1,0);
x17 = (2,0);
x18 = (3,0);
x19 = (4,1);
x1 = {(0,1),(2,0),(1,0),(4,1),(3,0)};
x20 = (0,0);
x21 = (1,0);
x22 = (2,0);
x23 = (3,0);
x24 = (4,1);
x2 = {(3,0),(2,0),(1,0),(0,0),(4,1)};
x25 = (0,1);
x26 = (1,0);
x27 = (2,0);
x28 = (3,0);
x29 = (4,1);
x3 = {(0,1),(2,0),(1,0),(4,1),(3,0)};
x30 = (0,0);
x31 = (1,1);
x32 = (2,1);
x33 = (3,1);
x34 = (4,1);
x4 = {(0,0),(4,1),(1,1),(2,1),(3,1)};
x35 = (0,{(0,1),(3,1),(4,1),(1,1),(2,1)});
x36 = (1,{(0,1),(2,0),(1,0),(4,1),(3,0)});
x37 = (2,{(3,0),(2,0),(1,0),(0,0),(4,1)});
x38 = (3,{(0,1),(2,0),(1,0),(4,1),(3,0)});
x39 = (4,{(0,0),(4,1),(1,1),(2,1),(3,1)});
x5 = {(1,{(0,1),(2,0),(1,0),(4,1),(3,0)}),(3,{(0,1),(2,0),(1,0),(4,1),(3,0)}),(4,{(0,0),(4,1),(1,1),(2,1),(3,1)}),(0,{(0,1),(3,1),(4,1),(1,1),(2,1)}),(2,{(3,0),(2,0),(1,0),(0,0),(4,1)})};
x40 = (0,1);
x41 = (1,0);
x6 = {(0,1),(1,0)};
x7 = 0;
x8 = {(0,0),(3,1),(1,1),(2,1),(4,0)};
x42 = {{(0,1),(2,0),(1,0),(4,1),(3,0)},{(0,1),(3,1),(4,1),(1,1),(2,1)},{(3,0),(2,0),(1,0),(0,0),(4,1)},{(0,0),(4,1),(1,1),(2,1),(3,1)}};
x9 = 0;
