x0 = 1;
x1 = 2;
x2 = {1,2};
x18 = (1,2);
x19 = (3,4);
x3 = {(1,2),(3,4)};
x4 = 0;
x5 = 1;
x20 = {1,2};
x6 = 1;
x7 = 2;
x21 = (4,5);
x22 = (0,1);
x23 = (3,(4,5));
x8 = ((0,1),(3,(4,5)));
x9 = {((0,1),(3,(4,5)))};
x24 = (0,4);
x25 = (1,6);
x26 = (2,1);
x10 = {(1,6),(2,1),(0,4)};
x11 = undefined!;
x12 = -1;
x13 = 0;
x14 = 1;
x27 = {1,2};
x15 = 1;
x28 = 1;
x29 = (0,1);
x16 = (3,(4,5));
x30 = 1;
x31 = (0,1);
x17 = (3,(4,5));
